<?xml version="1.0" encoding="utf-8"?>
<!-- Generator: Adobe Illustrator 19.1.0, SVG Export Plug-In . SVG Version: 6.00 Build 0)  -->
<svg version="1.1" id="Layer_1" xmlns="http://www.w3.org/2000/svg" xmlns:xlink="http://www.w3.org/1999/xlink" x="0px" y="0px"
	 width="152.9px" height="100.6px" viewBox="0 0 152.9 100.6" style="enable-background:new 0 0 152.9 100.6;" xml:space="preserve"
	>
<style type="text/css">
	.st0{fill:#107CAD;}
</style>
<path class="st0" d="M152.9,2v96.6c0,1.1-0.9,2-2,2H2c-1.1,0-2-0.9-2-2L0,2c0-1.1,0.9-2,2-2l148.9,0C152,0,152.9,0.9,152.9,2z"/>
</svg>
