<?xml version="1.0" encoding="utf-8"?>
<!-- Generator: Adobe Illustrator 19.1.0, SVG Export Plug-In . SVG Version: 6.00 Build 0)  -->
<svg version="1.1" id="Layer_1" xmlns="http://www.w3.org/2000/svg" xmlns:xlink="http://www.w3.org/1999/xlink" x="0px" y="0px"
	 width="161.2px" height="106.1px" viewBox="0 0 161.2 106.1" style="enable-background:new 0 0 161.2 106.1;" xml:space="preserve"
	>
<style type="text/css">
	.st0{fill:#2D98D5;}
	.st1{fill:#FFFFFF;}
</style>
<g>
	<path class="st0" d="M161.2,2v102.1c0,1.1-0.9,2-2,2H2c-1.1,0-2-0.9-2-2L0,2c0-1.1,0.9-2,2-2l157.2,0C160.3,0,161.2,0.9,161.2,2z"
		/>
	<g>
		<rect x="136.9" y="8.9" class="st1" width="17.5" height="1.5"/>
		<rect x="136.9" y="12.8" class="st1" width="17.5" height="1.5"/>
		<rect x="136.9" y="16.6" class="st1" width="17.5" height="1.5"/>
		<polygon class="st1" points="145.6,4.1 142.5,7.3 148.8,7.3 		"/>
		<polygon class="st1" points="145.6,23.1 148.8,19.9 142.5,19.9 		"/>
	</g>
</g>
</svg>
