<?xml version="1.0" encoding="utf-8"?>
<!-- Generator: Adobe Illustrator 19.0.1, SVG Export Plug-In . SVG Version: 6.00 Build 0)  -->
<svg version="1.1" id="Layer_1" xmlns="http://www.w3.org/2000/svg" xmlns:xlink="http://www.w3.org/1999/xlink" x="0px" y="0px"
	 width="30px" height="30px" viewBox="-296 405.9 30 30" style="enable-background:new -296 405.9 30 30;" xml:space="preserve">
<style type="text/css">
	.st0{fill-rule:evenodd;clip-rule:evenodd;fill:#039BE5;}
	.st1{fill-rule:evenodd;clip-rule:evenodd;fill:#FFFFFF;}
</style>
<g>
	<path class="st0" d="M-294,405.9h26c1.1,0,2,0.9,2,2v26c0,1.1-0.9,2-2,2h-26c-1.1,0-2-0.9-2-2v-26
		C-296,406.8-295.1,405.9-294,405.9z"/>
	<path class="st1" d="M-277,419.9h-3v-3c0-0.6-0.4-1-1-1s-1,0.4-1,1v3h-3c-0.6,0-1,0.4-1,1c0,0.6,0.4,1,1,1h3v3c0,0.6,0.4,1,1,1
		s1-0.4,1-1v-3h3c0.6,0,1-0.4,1-1C-276,420.3-276.4,419.9-277,419.9z"/>
</g>
</svg>
