<?xml version="1.0" encoding="utf-8"?>
<!-- Generator: Adobe Illustrator 19.1.0, SVG Export Plug-In . SVG Version: 6.00 Build 0)  -->
<svg version="1.1" id="Layer_1" xmlns="http://www.w3.org/2000/svg" xmlns:xlink="http://www.w3.org/1999/xlink" x="0px" y="0px"
	 width="16.6px" height="11.8px" viewBox="0 0 16.6 11.8" style="enable-background:new 0 0 16.6 11.8;" xml:space="preserve">
<style type="text/css">
	.st0{fill:#84D2F6;}
</style>
<g>
	<path class="st0" d="M5.6,5.9c0,0.2,0,0.4,0.1,0.6L5.8,7L6.7,6V5.9c0-0.4,0.2-0.8,0.5-1.1c0.3-0.3,0.7-0.5,1.1-0.5h0.1l0.9-0.9
		L9,3.3C8.8,3.2,8.5,3.2,8.3,3.2C6.8,3.2,5.6,4.4,5.6,5.9z"/>
	<path class="st0" d="M3.5,9.3l0.8-0.8L4,8.3c-1.5-0.9-2.4-2-2.7-2.4c0.5-0.7,2.8-3.5,7-3.5c0.6,0,1.2,0.1,1.7,0.1l0.1,0l0.9-0.9
		l-0.4-0.1C10,1.4,9.3,1.3,8.3,1.3c-5.7,0-8.3,4.4-8.3,4.5L0,5.9l0.1,0.1c0,0.1,1,1.8,3.2,3.1L3.5,9.3z"/>
	<path class="st0" d="M10,5.8v0.1C10,6.4,9.8,6.7,9.5,7C9.1,7.4,8.8,7.5,8.3,7.5H8.2L7.3,8.5l0.4,0.1c0.2,0.1,0.4,0.1,0.6,0.1
		c1.5,0,2.7-1.2,2.7-2.7c0-0.2,0-0.4-0.1-0.6l-0.1-0.4L10,5.8z"/>
	<polygon class="st0" points="13.3,0 2.4,10.9 3.4,11.8 14.3,1 	"/>
	<path class="st0" d="M16.6,5.8c0-0.1-1.1-1.8-3.3-3.1l-0.2-0.1l-0.8,0.8l0.3,0.2c1.5,0.9,2.4,2,2.7,2.4c-0.5,0.7-2.8,3.5-7,3.5
		c-0.6,0-1.2-0.1-1.7-0.1l-0.1,0l-0.9,0.9l0.4,0.1c0.6,0.2,1.4,0.3,2.3,0.3c5.7,0,8.3-4.4,8.3-4.5l0.1-0.1L16.6,5.8z"/>
</g>
</svg>
