<?xml version="1.0" encoding="utf-8"?>
<!-- Generator: Adobe Illustrator 19.1.0, SVG Export Plug-In . SVG Version: 6.00 Build 0)  -->
<svg version="1.1" id="Layer_1" xmlns="http://www.w3.org/2000/svg" xmlns:xlink="http://www.w3.org/1999/xlink" x="0px" y="0px"
	 width="12.7px" height="11px" viewBox="0 0 12.7 11" style="enable-background:new 0 0 12.7 11;" xml:space="preserve">
<style type="text/css">
	.st0{fill:#84D2F6;}
</style>
<g>
	<g id="content-copy_3_">
		<path class="st0" d="M12.7,8.1V1.2c0-0.6-0.5-1.2-1.2-1.2L3.5,0v1.2h8.1v6.9H12.7z M10.4,9.8V3.5c0-0.6-0.5-1.2-1.2-1.2H1.2
			C0.5,2.3,0,2.8,0,3.5l0,6.3C0,10.4,0.5,11,1.2,11h8.1C9.9,11,10.4,10.4,10.4,9.8z M1.2,9.8V3.5h8.1v6.3H1.2z"/>
	</g>
</g>
</svg>
