<?xml version="1.0" encoding="utf-8"?>
<!-- Generator: Adobe Illustrator 19.0.1, SVG Export Plug-In . SVG Version: 6.00 Build 0)  -->
<svg version="1.1" id="Layer_1" xmlns="http://www.w3.org/2000/svg" xmlns:xlink="http://www.w3.org/1999/xlink" x="0px" y="0px"
	 width="30px" height="30px" viewBox="-281 404.9 30 30" enable-background="new -281 404.9 30 30" xml:space="preserve">
<g>
	<path fill-rule="evenodd" clip-rule="evenodd" fill="#3798C4" d="M-279,404.9h26c1.1,0,2,0.9,2,2v26c0,1.1-0.9,2-2,2h-26
		c-1.1,0-2-0.9-2-2v-26C-281,405.8-280.1,404.9-279,404.9z"/>
	<path fill="#F1F1F2" d="M-266,425.3c-0.3,0-0.5-0.1-0.7-0.3l-6.9-6.9c-0.4-0.4-0.4-1,0-1.4s1-0.4,1.4,0l6.2,6.2l6.2-6.2
		c0.4-0.4,1-0.4,1.4,0s0.4,1,0,1.4l-6.9,6.9C-265.5,425.2-265.7,425.3-266,425.3z"/>
</g>
</svg>
