<?xml version="1.0" encoding="utf-8"?>
<!-- Generator: Adobe Illustrator 19.0.1, SVG Export Plug-In . SVG Version: 6.00 Build 0)  -->
<svg version="1.1" id="Layer_1" xmlns="http://www.w3.org/2000/svg" xmlns:xlink="http://www.w3.org/1999/xlink" x="0px" y="0px"
	 width="23.9px" height="24px" viewBox="0 0 23.9 24" enable-background="new 0 0 23.9 24" xml:space="preserve">
<g>
	<path fill="#FFFFFF" d="M2,23.5c-0.8,0-1.5-0.7-1.5-1.5V2c0-0.8,0.7-1.5,1.5-1.5h19.9c0.8,0,1.5,0.7,1.5,1.5v20
		c0,0.8-0.7,1.5-1.5,1.5H2z"/>
	<path fill="#E0E1E0" d="M21.9,1c0.6,0,1,0.4,1,1v20c0,0.6-0.4,1-1,1H2c-0.6,0-1-0.4-1-1V2c0-0.6,0.4-1,1-1H21.9 M21.9,0H2
		C0.9,0,0,0.9,0,2v20c0,1.1,0.9,2,2,2h19.9c1.1,0,2-0.9,2-2V2C23.9,0.9,23,0,21.9,0L21.9,0z"/>
</g>
<path fill="#3399C5" d="M17.9,7.2c-0.5-0.5-1.3-0.5-1.8,0L10.3,13l-2.6-2.6c-0.5-0.5-1.3-0.5-1.8,0s-0.5,1.3,0,1.8l3.5,3.5
	C9.7,15.9,10,16,10.3,16s0.6-0.1,0.9-0.4l6.7-6.7C18.4,8.4,18.4,7.6,17.9,7.2z"/>
</svg>
