<?xml version="1.0" encoding="utf-8"?>
<!-- Generator: Adobe Illustrator 19.0.1, SVG Export Plug-In . SVG Version: 6.00 Build 0)  -->
<svg version="1.1" id="Layer_1" xmlns="http://www.w3.org/2000/svg" xmlns:xlink="http://www.w3.org/1999/xlink" x="0px" y="0px"
	 width="32px" height="32px" viewBox="0 0 32 32" enable-background="new 0 0 32 32" xml:space="preserve">
<g>
	<path fill="#DC4D58" d="M29,32H3c-1.7,0-3-1.3-3-3V3c0-1.7,1.3-3,3-3h26c1.7,0,3,1.3,3,3v26C32,30.7,30.7,32,29,32z"/>
	<g>
		<path fill="#FFFFFF" d="M23.9,11.2H20v-2v-1v-1h-8v1h0v3H8.1v2.1H10v10h2.1v0h7.9H22v-2.1v-7.9h1.9V11.2z M14,9.3H18v2H14V9.3z
			 M19.9,21.2h-7.9v-7.9h7.9V21.2z"/>
		<rect x="14" y="15.2" fill="#FFFFFF" width="1" height="4"/>
		<rect x="17" y="15.2" fill="#FFFFFF" width="1" height="4"/>
	</g>
</g>
</svg>
