<?xml version="1.0" encoding="utf-8"?>
<!-- Generator: Adobe Illustrator 15.0.0, SVG Export Plug-In . SVG Version: 6.00 Build 0)  -->
<!DOCTYPE svg PUBLIC "-//W3C//DTD SVG 1.1//EN" "http://www.w3.org/Graphics/SVG/1.1/DTD/svg11.dtd">
<svg version="1.1" id="Layer_1" xmlns="http://www.w3.org/2000/svg" xmlns:xlink="http://www.w3.org/1999/xlink" x="0px" y="0px"
	 width="16px" height="16px" viewBox="0 0 16 16" enable-background="new 0 0 16 16" xml:space="preserve">
<path fill="#ECF5FB" d="M16,0H0v16h16V0z M7.313,11.708L4.311,8.742C4.125,8.555,4.021,8.3,4.021,8.035
	c0-0.267,0.104-0.521,0.289-0.708l3.01-3.034C7.746,3.864,8.463,3.905,8.833,4.42c0.29,0.405,0.205,0.972-0.147,1.326L7.57,6.87
	L7.55,7h0.972h2.512C11.58,7,12,7.443,12,7.99v0.02C12,8.557,11.58,9,11.032,9H8.521H7.398l1.316,1.292
	c0.39,0.394,0.39,1.024,0,1.416C8.328,12.1,7.699,12.1,7.313,11.708z"/>
</svg>
