<?xml version="1.0" encoding="utf-8"?>
<!-- Generator: Adobe Illustrator 19.0.1, SVG Export Plug-In . SVG Version: 6.00 Build 0)  -->
<svg version="1.1" id="Layer_1" xmlns="http://www.w3.org/2000/svg" xmlns:xlink="http://www.w3.org/1999/xlink" x="0px" y="0px"
	 width="13.3px" height="14px" viewBox="0 0 13.3 14" enable-background="new 0 0 13.3 14" xml:space="preserve">
<g>
	<g>
		<path fill="#D1D3D4" d="M13,8.6c-0.3,2.8-2.6,5.1-5.4,5.4c-3.4,0.3-6.2-2.2-6.5-5.4H0.5c-0.4,0-0.6-0.4-0.4-0.7l1.3-2.3
			c0.2-0.3,0.6-0.3,0.8,0l1.3,2.3c0.2,0.3,0,0.7-0.4,0.7H2.6c0.3,2.4,2.6,4.2,5.1,3.8c1.9-0.3,3.4-1.8,3.7-3.7C11.9,6,9.8,3.5,7,3.5
			c-0.9,0-1.7,0.3-2.5,0.7C4.2,4.5,3.8,4.4,3.5,4.1C3.2,3.7,3.3,3.2,3.7,3c0.8-0.5,1.7-0.9,2.6-1V1.1H5.7C5.5,1.1,5.3,1,5.3,0.8V0.4
			C5.3,0.2,5.5,0,5.7,0h2.8c0.2,0,0.4,0.2,0.4,0.4v0.4c0,0.2-0.2,0.4-0.4,0.4H7.9V2C11,2.4,13.4,5.3,13,8.6z M13.2,2.8l-1.2-1.1
			c-0.2-0.1-0.4-0.1-0.5,0l-0.3,0.3c-0.1,0.2-0.1,0.4,0,0.5l1.2,1.1c0.2,0.1,0.4,0.1,0.5,0l0.3-0.3C13.4,3.2,13.4,3,13.2,2.8z
			 M7,4.3V8h3.7C10.7,5.7,9,4.3,7,4.3z"/>
	</g>
</g>
</svg>
